<?xml version="1.0" encoding="UTF-8"?>
<!DOCTYPE svg PUBLIC "-//W3C//DTD SVG 1.1//EN" "http://www.w3.org/Graphics/SVG/1.1/DTD/svg11.dtd">
<!-- Creator: CorelDRAW X7 -->
<svg xmlns="http://www.w3.org/2000/svg" xml:space="preserve" width="64.2303mm" height="18.8095mm" version="1.1" style="shape-rendering:geometricPrecision; text-rendering:geometricPrecision; image-rendering:optimizeQuality; fill-rule:evenodd; clip-rule:evenodd"
viewBox="0 0 3390 993"
 xmlns:xlink="http://www.w3.org/1999/xlink">
 <defs>
  <style type="text/css">
   <![CDATA[
    .fil0 {fill:white}
    .fil1 {fill:white;fill-rule:nonzero}
   ]]>
  </style>
 </defs>
 <g id="Capa_x0020_1">
  <metadata id="CorelCorpID_0Corel-Layer"/>
  <path class="fil0" d="M265 545l21 -288c6,-63 50,-86 88,-86 35,-3 70,-4 105,-5l13 0 0 -156 -85 0c0,0 -2,0 -4,0l-33 0c-23,1 -42,1 -97,8 -57,7 -122,63 -127,141l-37 349c-4,42 -19,87 -109,118l0 269 403 0c26,19 56,31 89,35l0 -115c-33,-10 -56,-40 -56,-76l-113 0 0 0 -163 0 0 -41c0,-1 93,-17 105,-153z"/>
  <path class="fil0" d="M1030 626c-90,-31 -106,-76 -109,-118l-38 -349c-5,-78 -69,-134 -127,-141 -54,-7 -73,-7 -96,-8l-33 0c-3,0 -4,0 -5,0l-85 0 0 156 14 0c35,1 69,2 104,5 39,0 82,23 88,86l21 288c13,136 105,152 105,153l1 41 -163 0 0 0 -113 0c0,36 -24,66 -57,76l0 115c33,-4 63,-16 89,-35l404 0 0 -269z"/>
  <path class="fil1" d="M1395 460c-135,0 -215,-87 -215,-223 0,-134 86,-224 210,-224 48,0 87,10 118,25l-17 112c-24,-18 -56,-32 -89,-32 -56,0 -94,43 -94,118 0,79 46,119 102,119 30,0 57,-9 88,-25l16 102c-36,18 -72,28 -119,28z"/>
  <path class="fil1" d="M1708 303c-46,10 -61,28 -61,53 0,18 10,26 24,26 11,0 23,-5 37,-15l0 -64zm10 150l-6 -38c-26,27 -55,44 -93,44 -47,0 -82,-28 -82,-86 0,-71 52,-107 170,-117l0 -2c0,-23 -12,-34 -42,-34 -33,0 -65,8 -97,22l-13 -82c35,-13 77,-23 129,-23 89,0 135,28 135,111l0 205 -101 0z"/>
  <path class="fil1" d="M2005 457c-71,0 -122,-26 -122,-112l0 -113 -39 0 0 -90 39 0 0 -88 111 -18 0 106 56 0 14 90 -70 0 0 95c0,25 13,35 36,35 7,0 15,-1 22,-3l13 91c-18,5 -33,7 -60,7z"/>
  <path class="fil1" d="M2224 204c-23,0 -37,23 -38,68l76 0c-1,-45 -16,-68 -38,-68zm141 125l-177 0c6,39 34,52 70,52 30,0 64,-10 98,-28l11 74c-34,19 -76,32 -124,32 -98,0 -166,-50 -166,-159 0,-103 63,-164 150,-164 98,0 140,72 140,163 0,12 -1,24 -2,30z"/>
  <path class="fil1" d="M2578 232c-9,-4 -16,-6 -31,-6 -25,0 -44,19 -44,72 0,46 15,62 37,62 14,0 26,-9 38,-22l0 -106zm11 221l-6 -39c-20,22 -47,45 -84,45 -62,0 -108,-48 -108,-153 0,-120 61,-166 127,-166 27,0 44,4 60,9l0 -131 112 -18 0 453 -101 0z"/>
  <path class="fil1" d="M2851 285l0 168 -112 0 0 -311 100 0 10 61c17,-36 39,-64 83,-67l18 115c-44,4 -75,15 -99,34z"/>
  <path class="fil1" d="M3119 303c-45,10 -60,28 -60,53 0,18 10,26 23,26 12,0 24,-5 37,-15l0 -64zm11 150l-6 -38c-26,27 -55,44 -93,44 -47,0 -82,-28 -82,-86 0,-71 52,-107 170,-117l0 -2c0,-23 -12,-34 -42,-34 -33,0 -65,8 -97,22l-13 -82c35,-13 77,-23 129,-23 89,0 134,28 134,111l0 205 -100 0z"/>
  <polygon class="fil1" points="3278,453 3278,18 3390,0 3390,453 "/>
  <path class="fil1" d="M1316 671c-53,0 -100,50 -100,135 0,41 16,66 44,66 23,0 46,-19 78,-54l23 -137c-16,-6 -28,-10 -45,-10zm55 155l-1 70 -31 0 -1 -46c-28,31 -53,51 -84,51 -43,0 -72,-33 -72,-92 0,-99 62,-167 137,-167 18,0 33,5 46,9l20 -128 35 -6 -49 309z"/>
  <path class="fil1" d="M1563 746c4,-49 -10,-78 -45,-78 -31,0 -62,29 -74,78l119 0zm-125 49c0,49 23,77 63,77 27,0 49,-10 79,-31l0 32c-27,18 -52,28 -84,28 -57,0 -93,-38 -93,-104 0,-94 58,-156 116,-156 51,0 79,34 79,93 0,12 -1,26 -3,38l-156 0c-1,7 -1,15 -1,23z"/>
  <polygon class="fil1" points="1715,896 1681,896 1740,523 1775,517 "/>
  <path class="fil1" d="M1937 679c-12,-5 -22,-8 -39,-8 -53,0 -103,59 -103,143 0,38 14,58 36,58 22,0 46,-20 85,-62l21 -131zm-111 222c-40,0 -66,-30 -66,-84 0,-101 66,-175 142,-175 26,0 48,6 72,16l-26 166 -2 72 -30 0 -1 -51c-32,34 -60,56 -89,56z"/>
  <path class="fil1" d="M2188 548c-23,0 -35,12 -39,36l-10 62 50 0 0 29 -54 0 -50 312 -34 6 50 -318 -37 0 4 -29 38 0 10 -66c7,-44 32,-62 73,-62 9,0 17,1 23,2l0 30c-6,-1 -14,-2 -24,-2z"/>
  <path class="fil1" d="M2323 746c4,-49 -10,-78 -46,-78 -30,0 -61,29 -74,78l120 0zm-126 49c0,49 24,77 63,77 28,0 50,-10 80,-31l0 32c-27,18 -53,28 -84,28 -58,0 -93,-38 -93,-104 0,-94 58,-156 116,-156 51,0 79,34 79,93 0,12 -2,26 -4,38l-156 0c0,7 -1,15 -1,23z"/>
 </g>
</svg>
