<?xml version="1.0" encoding="UTF-8"?>
<!DOCTYPE svg PUBLIC "-//W3C//DTD SVG 1.1//EN" "http://www.w3.org/Graphics/SVG/1.1/DTD/svg11.dtd">
<!-- Creator: CorelDRAW X7 -->
<svg xmlns="http://www.w3.org/2000/svg" xml:space="preserve" width="41.6737mm" height="29.9719mm" version="1.1" style="shape-rendering:geometricPrecision; text-rendering:geometricPrecision; image-rendering:optimizeQuality; fill-rule:evenodd; clip-rule:evenodd"
viewBox="0 0 41674 29972"
 xmlns:xlink="http://www.w3.org/1999/xlink">
 <defs>
  <font id="FontID0" horiz-adv-x="667" font-variant="normal" style="fill-rule:nonzero" font-weight="400">
	<font-face 
		font-family="Arial">
	</font-face>
   <missing-glyph><path d="M0 0z"/></missing-glyph>
   <glyph unicode="U" horiz-adv-x="722"><path d="M545.998 716.008l94.9855 0 0 -413.5c0,-71.9865 -8.14851,-129.171 -24.3009,-171.504 -16.3452,-42.189 -45.6606,-76.6635 -87.9942,-103.182 -42.5265,-26.4706 -98.0231,-39.8264 -167.02,-39.8264 -66.8274,0 -121.649,11.5236 -164.176,34.6673 -42.6712,23.1919 -72.999,56.5092 -91.1765,100.338 -18.1292,43.8284 -27.3385,103.664 -27.3385,179.508l0 413.5 95.0338 0 0 -413.356c0,-62.1504 5.83414,-108.149 17.3095,-137.464 11.5236,-29.5082 31.1958,-52.3626 59.3539,-68.1774 28.0135,-16.0077 62.3433,-24.0116 102.845,-24.0116 69.3346,0 118.804,15.8149 148.312,47.3481 29.5082,31.6297 44.1659,92.3337 44.1659,182.305l0 413.356z"/></glyph>
   <glyph unicode="R" horiz-adv-x="722"><path d="M78.9778 0l0 716.008 317.358 0c63.838,0 112.343,-6.50916 145.516,-19.3346 33.1244,-12.8255 59.6432,-35.487 79.46,-67.9846 19.865,-32.5458 29.7011,-68.5149 29.7011,-107.859 0,-50.8197 -16.4899,-93.6837 -49.325,-128.496 -32.8351,-34.812 -83.5101,-56.8467 -152.17,-66.3452 25.1688,-12.0058 44.1659,-24.0116 57.136,-35.6316 27.676,-25.3616 53.8573,-57.1842 78.351,-95.3713l123.819 -194.986 -118.322 0 -94.648 148.987c-27.5313,43.2015 -50.3375,75.9884 -68.1774,98.8428 -18.0328,22.8544 -33.9923,38.6692 -48.1678,47.8303 -14.0309,9.01639 -28.4957,15.3327 -43.1533,18.9971 -10.704,2.16972 -28.2064,3.3269 -52.7001,3.3269l-109.643 0 0 -317.985 -95.0338 0zm95.0338 400l203.327 0c43.3462,0 77.001,4.48409 101.35,13.5005 24.3009,8.82353 42.8158,23.1437 55.3038,43.0087 12.6808,19.6721 18.9971,40.9836 18.9971,64.1755 0,33.7994 -12.1504,61.8129 -36.6442,83.6548 -24.4937,21.8419 -63.163,32.6422 -116.008,32.6422l-226.326 0 0 -236.982z"/></glyph>
   <glyph unicode="A" horiz-adv-x="667"><path d="M-1.4947 0l274.638 716.008 104.195 0 291.514 -716.008 -107.859 0 -82.8351 217.02 -301.495 0 -77.676 -217.02 -100.482 0zm205.979 294.021l244.021 0 -74.6866 198.457c-22.4687,60.3664 -39.4889,110.174 -51.3018,149.518 -9.83607,-46.6731 -22.999,-92.4783 -39.5371,-137.85l-78.4957 -210.125z"/></glyph>
   <glyph unicode="O" horiz-adv-x="777"><path d="M48.0231 348.505c0,118.66 31.9672,211.668 95.8052,278.833 63.838,67.1649 146.191,100.675 247.155,100.675 66.2006,0 125.699,-15.8631 178.833,-47.3481 53.0376,-31.4851 93.5391,-75.5063 121.36,-132.015 27.8206,-56.3163 41.8033,-120.299 41.8033,-191.803 0,-72.5169 -14.6577,-137.512 -43.973,-194.696 -29.3635,-57.3288 -70.8293,-100.627 -124.494,-129.99 -53.8573,-29.5082 -111.861,-44.1659 -174.012,-44.1659 -67.5024,0 -127.676,16.3452 -180.858,48.8428 -52.9894,32.4976 -93.298,76.8081 -120.636,133.173 -27.3385,56.1716 -40.9836,115.67 -40.9836,178.496zm97.9749 -1.68756c0,-86.162 23.1919,-154.002 69.4793,-203.472 46.3356,-49.5178 104.532,-74.3491 174.542,-74.3491 71.3115,0 129.797,25.0241 175.988,75.0241 45.9981,50 68.9971,120.974 68.9971,212.97 0,58.1967 -9.83607,109.016 -29.5082,152.363 -19.6721,43.298 -48.5053,77.001 -86.3067,100.82 -38.0424,23.8187 -80.5207,35.8245 -127.676,35.8245 -67.0203,0 -124.687,-22.999 -172.999,-68.9971 -48.3607,-45.9981 -72.5169,-122.662 -72.5169,-230.183z"/></glyph>
   <glyph unicode="I" horiz-adv-x="277"><path d="M93.0087 0l0 716.008 94.9855 0 0 -716.008 -94.9855 0z"/></glyph>
   <glyph unicode="S" horiz-adv-x="667"><path d="M45.9981 229.99l89.0068 8.00386c4.14658,-36.0174 13.9826,-65.4773 29.5082,-88.6692 15.4773,-22.999 39.4889,-41.6586 71.9865,-55.9788 32.4976,-14.1755 69.19,-21.3597 109.836,-21.3597 36.162,0 67.9846,5.35198 95.6606,16.2006 27.676,10.8004 48.1678,25.6509 61.6683,44.5034 13.5005,18.8042 20.3472,39.296 20.3472,61.3308 0,22.324 -6.50916,41.8033 -19.5275,58.6307 -12.9701,16.6827 -34.4744,30.6654 -64.4648,42.189 -19.19,7.32883 -61.6683,18.9971 -127.531,34.812 -65.8149,15.8631 -111.813,30.6654 -138.139,44.6962 -34.1851,17.9846 -59.4986,40.3086 -76.1813,66.8274 -16.8274,26.4706 -25.1688,56.3163 -25.1688,89.1514 0,36.3549 10.3182,70.1543 30.8582,101.495 20.4918,31.5333 50.2893,55.352 89.8264,71.6972 39.296,16.297 83.1726,24.4937 131.292,24.4937 53.0376,0 99.8554,-8.53423 140.357,-25.6991 40.5014,-16.972 71.649,-42.1408 93.4908,-75.4581 21.8419,-33.1726 33.5101,-70.8775 35.1977,-112.874l-91.0318 -6.99132c-4.8216,45.1784 -21.3115,79.3635 -49.4696,102.363 -28.2064,23.1437 -69.865,34.6673 -124.831,34.6673 -57.377,0 -99.1803,-10.5111 -125.362,-31.5333 -26.1813,-20.974 -39.3443,-46.3356 -39.3443,-75.9884 0,-25.6509 9.35391,-46.8177 27.8689,-63.5005 18.3221,-16.4899 65.8149,-33.6548 142.816,-51.0125 77.001,-17.5024 129.846,-32.6422 158.486,-45.6606 41.514,-19.1418 72.324,-43.3462 92.189,-72.8062 19.8168,-29.3635 29.6528,-63.163 29.6528,-101.543 0,-38.1389 -10.8486,-73.8187 -32.6422,-107.473 -21.8419,-33.6548 -53.0376,-59.8361 -93.8766,-78.4957 -40.7907,-18.6596 -86.6442,-28.0135 -137.801,-28.0135 -64.6577,0 -118.852,9.49855 -162.488,28.351 -43.8766,18.8042 -78.0135,47.1553 -102.845,85.1495 -25.0241,37.8496 -37.9942,80.6654 -39.3443,128.496z"/></glyph>
  </font>
  <style type="text/css">
   <![CDATA[
    @font-face { font-family:"Arial";src:url("#FontID0") format(svg)}
    .fil2 {fill:#36ACE2}
    .fil1 {fill:#246D98}
    .fil4 {fill:white}
    .fil3 {fill:#696C6E;fill-rule:nonzero}
    .fil0 {fill:white}
    .fnt0 {font-weight:normal;font-size:2074px;font-family:'Arial'}
   ]]>
  </style>
 </defs>
 <g id="Capa_x0020_1">
  <metadata id="CorelCorpID_0Corel-Layer"/>
  <g id="_589135075968">
   <polygon class="fil0" points="0,0 41674,0 41674,27601 6926,27601 4958,29972 2947,27601 0,27601 "/>
   <g>
    <path class="fil1" d="M12615 4289l121 -1660c34,-358 284,-490 507,-493 199,-15 399,-25 599,-28l77 0 0 -898 -489 0c-3,1 -10,1 -23,0l-191 0c-134,5 -243,5 -556,44 -329,41 -700,367 -731,811l-215 2008c-20,244 -110,504 -625,680l0 1550 2321 0c147,104 320,174 509,196l0 -659c-188,-56 -324,-230 -324,-435l-649 0 0 0 -938 0 2 -236c0,-5 532,-102 605,-880z"/>
    <path class="fil2" d="M17010 4753c-515,-176 -605,-436 -625,-680l-215 -2008c-31,-444 -402,-770 -731,-811 -313,-39 -422,-39 -556,-44l-190 0c-14,1 -21,1 -24,0l-490 0 0 898 78 0c200,3 401,13 599,28 223,3 473,135 507,493l121 1660c73,778 606,875 606,880l1 236 -938 0 0 0 -649 0c0,206 -137,380 -325,436l0 658c189,-22 363,-92 511,-196l2320 0 0 -1550z"/>
    <path class="fil3" d="M19110 3796c-775,0 -1233,-497 -1233,-1280 0,-772 494,-1287 1208,-1287 274,0 501,54 678,140l-101 646c-137,-105 -317,-184 -512,-184 -317,0 -537,245 -537,681 0,455 263,682 588,682 169,0 324,-51 504,-141l94 585c-209,101 -418,158 -689,158z"/>
    <path class="fil3" d="M20910 2898c-260,58 -350,159 -350,303 0,101 58,152 137,152 68,0 133,-29 213,-91l0 -364zm61 859l-36 -217c-151,155 -314,252 -534,252 -270,0 -472,-162 -472,-494 0,-407 299,-612 977,-670l0 -15c0,-129 -68,-194 -242,-194 -191,0 -371,46 -559,126l-72 -469c199,-79 440,-133 740,-133 515,0 775,158 775,638l0 1176 -577 0z"/>
    <path class="fil3" d="M22622 3782c-411,0 -703,-152 -703,-646l0 -649 -223 0 0 -516 223 0 0 -508 639 -101 0 609 321 0 79 516 -400 0 0 548c0,145 75,202 209,202 39,0 83,-7 122,-21l76 522c-101,29 -187,44 -343,44z"/>
    <path class="fil3" d="M23878 2328c-130,0 -213,130 -217,390l437 0c-8,-260 -91,-390 -220,-390zm811 718l-1017 0c36,224 195,299 404,299 173,0 368,-61 566,-162l58 426c-195,111 -437,183 -711,183 -566,0 -955,-288 -955,-915 0,-588 364,-942 862,-942 562,0 804,411 804,938 0,69 -4,137 -11,173z"/>
    <path class="fil3" d="M25919 2487c-54,-21 -98,-32 -181,-32 -144,0 -256,108 -256,411 0,267 90,357 213,357 83,0 152,-54 224,-126l0 -610zm61 1270l-36 -224c-112,126 -267,260 -483,260 -357,0 -621,-275 -621,-880 0,-693 354,-952 732,-952 155,0 249,21 347,50l0 -757 642 -101 0 2604 -581 0z"/>
    <path class="fil3" d="M27484 2790l0 967 -642 0 0 -1786 573 0 58 350c101,-209 227,-368 479,-386l105 660c-252,22 -433,87 -573,195z"/>
    <path class="fil3" d="M29030 2898c-259,58 -349,159 -349,303 0,101 57,152 137,152 68,0 133,-29 212,-91l0 -364zm62 859l-37 -217c-151,155 -313,252 -533,252 -271,0 -472,-162 -472,-494 0,-407 299,-612 977,-670l0 -15c0,-129 -69,-194 -242,-194 -191,0 -371,46 -559,126l-72 -469c198,-79 440,-133 739,-133 516,0 776,158 776,638l0 1176 -577 0z"/>
    <polygon class="fil3" points="29943,3757 29943,1254 30584,1153 30584,3757 "/>
    <path class="fil3" d="M18656 5015c-301,0 -571,285 -571,772 0,236 91,379 249,379 134,0 264,-106 453,-310l127 -787c-88,-36 -161,-54 -258,-54zm319 887l-9 404 -173 0 -6 -264c-161,179 -307,294 -486,294 -250,0 -414,-191 -414,-531 0,-569 356,-958 787,-958 107,0 192,25 268,49l112 -735 201 -37 -280 1778z"/>
    <path class="fil3" d="M20081 5443c21,-280 -61,-450 -264,-450 -173,0 -353,170 -426,450l690 0zm-723 283c0,279 134,443 362,443 158,0 285,-61 455,-182l0 185c-152,107 -300,164 -483,164 -328,0 -531,-221 -531,-598 0,-544 331,-900 665,-900 292,0 456,195 456,535 0,70 -9,149 -22,219l-896 0c-3,43 -6,88 -6,134z"/>
    <polygon class="fil3" points="20950,6306 20756,6306 21096,4161 21297,4124 "/>
    <path class="fil3" d="M22232 5057c-70,-30 -127,-42 -228,-42 -306,0 -592,334 -592,820 0,216 79,331 210,331 127,0 264,-115 489,-355l121 -754zm-644 1279c-228,0 -374,-173 -374,-483 0,-583 377,-1006 815,-1006 149,0 276,34 416,92l-155 951 -9 416 -170 0 -6 -295c-186,195 -347,325 -517,325z"/>
    <path class="fil3" d="M23676 4303c-134,0 -207,73 -228,210l-58 356 289 0 0 164 -313 0 -283 1796 -200 33 288 -1829 -212 0 24 -164 216 0 60 -383c40,-249 183,-353 420,-353 54,0 100,3 131,9l0 174c-31,-6 -80,-13 -134,-13z"/>
    <path class="fil3" d="M24450 5443c22,-280 -60,-450 -264,-450 -173,0 -353,170 -425,450l689 0zm-723 283c0,279 134,443 362,443 158,0 285,-61 456,-182l0 185c-152,107 -301,164 -484,164 -328,0 -531,-221 -531,-598 0,-544 331,-900 665,-900 292,0 456,195 456,535 0,70 -9,149 -21,219l-897 0c-3,43 -6,88 -6,134z"/>
   </g>
   <text x="9903" y="12637"  class="fil4 fnt0">USUARIO</text>
  </g>
 </g>
</svg>
